1,1,E0,1,10/08/2018,15,11,Man United,Leicester,1
2,1,E0,1,11/08/2018,2,5,Bournemouth,Cardiff,1
3,1,E0,1,11/08/2018,9,7,Fulham,Crystal Palace,1
4,1,E0,1,11/08/2018,10,6,Huddersfield,Chelsea,1
5,1,E0,1,11/08/2018,13,17,Newcastle,Tottenham,1
6,1,E0,1,11/08/2018,18,3,Watford,Brighton,1
7,1,E0,1,11/08/2018,20,8,Wolves,Everton,1
8,1,E0,1,12/08/2018,1,14,Arsenal,Man City,1
9,1,E0,1,12/08/2018,12,19,Liverpool,West Ham,1
10,1,E0,1,12/08/2018,16,4,Southampton,Burnley,1
11,1,E0,2,18/08/2018,5,13,Cardiff,Newcastle,1
12,1,E0,2,18/08/2018,6,1,Chelsea,Arsenal,1
13,1,E0,2,18/08/2018,8,16,Everton,Southampton,1
14,1,E0,2,18/08/2018,11,20,Leicester,Wolves,1
15,1,E0,2,18/08/2018,17,9,Tottenham,Fulham,1
16,1,E0,2,18/08/2018,19,2,West Ham,Bournemouth,1
17,1,E0,2,19/08/2018,3,15,Brighton,Man United,1
18,1,E0,2,19/08/2018,4,18,Burnley,Watford,1
19,1,E0,2,19/08/2018,14,10,Man City,Huddersfield,1
20,1,E0,2,20/08/2018,7,12,Crystal Palace,Liverpool,1
21,1,E0,3,25/08/2018,1,19,Arsenal,West Ham,1
22,1,E0,3,25/08/2018,2,8,Bournemouth,Everton,1
23,1,E0,3,25/08/2018,10,5,Huddersfield,Cardiff,1
24,1,E0,3,25/08/2018,12,3,Liverpool,Brighton,1
25,1,E0,3,25/08/2018,16,11,Southampton,Leicester,1
26,1,E0,3,25/08/2018,20,14,Wolves,Man City,1
27,1,E0,3,26/08/2018,9,4,Fulham,Burnley,1
28,1,E0,3,26/08/2018,13,6,Newcastle,Chelsea,1
29,1,E0,3,26/08/2018,18,7,Watford,Crystal Palace,1
30,1,E0,3,27/08/2018,15,17,Man United,Tottenham,1
31,1,E0,4,01/09/2018,3,9,Brighton,Fulham,1
32,1,E0,4,01/09/2018,6,2,Chelsea,Bournemouth,1
33,1,E0,4,01/09/2018,7,16,Crystal Palace,Southampton,1
34,1,E0,4,01/09/2018,8,10,Everton,Huddersfield,1
35,1,E0,4,01/09/2018,11,12,Leicester,Liverpool,1
36,1,E0,4,01/09/2018,14,13,Man City,Newcastle,1
37,1,E0,4,01/09/2018,19,20,West Ham,Wolves,1
38,1,E0,4,02/09/2018,4,15,Burnley,Man United,1
39,1,E0,4,02/09/2018,5,1,Cardiff,Arsenal,1
40,1,E0,4,02/09/2018,18,17,Watford,Tottenham,1
41,1,E0,5,15/09/2018,2,11,Bournemouth,Leicester,1
42,1,E0,5,15/09/2018,6,5,Chelsea,Cardiff,1
43,1,E0,5,15/09/2018,10,7,Huddersfield,Crystal Palace,1
44,1,E0,5,15/09/2018,14,9,Man City,Fulham,1
45,1,E0,5,15/09/2018,13,1,Newcastle,Arsenal,1
46,1,E0,5,15/09/2018,17,12,Tottenham,Liverpool,1
47,1,E0,5,15/09/2018,18,15,Watford,Man United,1
48,1,E0,5,16/09/2018,8,19,Everton,West Ham,1
49,1,E0,5,16/09/2018,20,4,Wolves,Burnley,1
50,1,E0,5,17/09/2018,16,3,Southampton,Brighton,1
51,1,E0,6,22/09/2018,3,17,Brighton,Tottenham,1
52,1,E0,6,22/09/2018,4,2,Burnley,Bournemouth,1
53,1,E0,6,22/09/2018,5,14,Cardiff,Man City,1
54,1,E0,6,22/09/2018,7,13,Crystal Palace,Newcastle,1
55,1,E0,6,22/09/2018,9,18,Fulham,Watford,1
56,1,E0,6,22/09/2018,11,10,Leicester,Huddersfield,1
57,1,E0,6,22/09/2018,12,16,Liverpool,Southampton,1
58,1,E0,6,22/09/2018,15,20,Man United,Wolves,1
59,1,E0,6,23/09/2018,1,8,Arsenal,Everton,1
60,1,E0,6,23/09/2018,19,6,West Ham,Chelsea,1
61,1,E0,7,29/09/2018,1,18,Arsenal,Watford,1
62,1,E0,7,29/09/2018,6,12,Chelsea,Liverpool,1
63,1,E0,7,29/09/2018,8,9,Everton,Fulham,1
64,1,E0,7,29/09/2018,10,17,Huddersfield,Tottenham,1
65,1,E0,7,29/09/2018,14,3,Man City,Brighton,1
66,1,E0,7,29/09/2018,13,11,Newcastle,Leicester,1
67,1,E0,7,29/09/2018,19,15,West Ham,Man United,1
68,1,E0,7,29/09/2018,20,16,Wolves,Southampton,1
69,1,E0,7,30/09/2018,5,4,Cardiff,Burnley,1
70,1,E0,7,01/10/2018,2,7,Bournemouth,Crystal Palace,1
71,1,E0,8,05/10/2018,3,19,Brighton,West Ham,1
72,1,E0,8,06/10/2018,4,10,Burnley,Huddersfield,1
73,1,E0,8,06/10/2018,7,20,Crystal Palace,Wolves,1
74,1,E0,8,06/10/2018,11,8,Leicester,Everton,1
75,1,E0,8,06/10/2018,15,13,Man United,Newcastle,1
76,1,E0,8,06/10/2018,17,5,Tottenham,Cardiff,1
77,1,E0,8,06/10/2018,18,2,Watford,Bournemouth,1
78,1,E0,8,07/10/2018,9,1,Fulham,Arsenal,1
79,1,E0,8,07/10/2018,12,14,Liverpool,Man City,1
80,1,E0,8,07/10/2018,16,6,Southampton,Chelsea,1
81,1,E0,9,20/10/2018,2,16,Bournemouth,Southampton,1
82,1,E0,9,20/10/2018,5,9,Cardiff,Fulham,1
83,1,E0,9,20/10/2018,6,15,Chelsea,Man United,1
84,1,E0,9,20/10/2018,10,12,Huddersfield,Liverpool,1
85,1,E0,9,20/10/2018,14,4,Man City,Burnley,1
86,1,E0,9,20/10/2018,13,3,Newcastle,Brighton,1
87,1,E0,9,20/10/2018,19,17,West Ham,Tottenham,1
88,1,E0,9,20/10/2018,20,18,Wolves,Watford,1
89,1,E0,9,21/10/2018,8,7,Everton,Crystal Palace,1
90,1,E0,9,22/10/2018,1,11,Arsenal,Leicester,1
91,1,E0,10,27/10/2018,3,20,Brighton,Wolves,0
92,1,E0,10,27/10/2018,9,2,Fulham,Bournemouth,0
93,1,E0,10,27/10/2018,11,19,Leicester,West Ham,0
94,1,E0,10,27/10/2018,12,5,Liverpool,Cardiff,0
95,1,E0,10,27/10/2018,16,13,Southampton,Newcastle,0
96,1,E0,10,27/10/2018,18,10,Watford,Huddersfield,0
97,1,E0,10,28/10/2018,4,6,Burnley,Chelsea,0
98,1,E0,10,28/10/2018,7,1,Crystal Palace,Arsenal,0
99,1,E0,10,28/10/2018,15,8,Man United,Everton,0
100,1,E0,10,29/10/2018,17,14,Tottenham,Man City,0
101,1,E0,11,03/11/2018,1,12,Arsenal,Liverpool,0
102,1,E0,11,03/11/2018,2,15,Bournemouth,Man United,0
103,1,E0,11,03/11/2018,5,11,Cardiff,Leicester,0
104,1,E0,11,03/11/2018,8,3,Everton,Brighton,0
105,1,E0,11,03/11/2018,13,18,Newcastle,Watford,0
106,1,E0,11,03/11/2018,19,4,West Ham,Burnley,0
107,1,E0,11,03/11/2018,20,17,Wolves,Tottenham,0
108,1,E0,11,04/11/2018,6,7,Chelsea,Crystal Palace,0
109,1,E0,11,04/11/2018,14,16,Man City,Southampton,0
110,1,E0,11,05/11/2018,10,9,Huddersfield,Fulham,0
111,1,E0,12,10/11/2018,5,3,Cardiff,Brighton,0
112,1,E0,12,10/11/2018,7,17,Crystal Palace,Tottenham,0
113,1,E0,12,10/11/2018,10,19,Huddersfield,West Ham,0
114,1,E0,12,10/11/2018,11,4,Leicester,Burnley,0
115,1,E0,12,10/11/2018,13,2,Newcastle,Bournemouth,0
116,1,E0,12,10/11/2018,16,18,Southampton,Watford,0
117,1,E0,12,11/11/2018,1,20,Arsenal,Wolves,0
118,1,E0,12,11/11/2018,6,8,Chelsea,Everton,0
119,1,E0,12,11/11/2018,12,9,Liverpool,Fulham,0
120,1,E0,12,11/11/2018,14,15,Man City,Man United,0
121,1,E0,13,24/11/2018,3,11,Brighton,Leicester,0
122,1,E0,13,24/11/2018,8,5,Everton,Cardiff,0
123,1,E0,13,24/11/2018,9,16,Fulham,Southampton,0
124,1,E0,13,24/11/2018,15,7,Man United,Crystal Palace,0
125,1,E0,13,24/11/2018,17,6,Tottenham,Chelsea,0
126,1,E0,13,24/11/2018,18,12,Watford,Liverpool,0
127,1,E0,13,24/11/2018,19,14,West Ham,Man City,0
128,1,E0,13,25/11/2018,2,1,Bournemouth,Arsenal,0
129,1,E0,13,25/11/2018,20,10,Wolves,Huddersfield,0
130,1,E0,13,26/11/2018,4,13,Burnley,Newcastle,0
131,1,E0,14,30/11/2018,5,20,Cardiff,Wolves,0
132,1,E0,14,01/12/2018,7,4,Crystal Palace,Burnley,0
133,1,E0,14,01/12/2018,10,3,Huddersfield,Brighton,0
134,1,E0,14,01/12/2018,11,18,Leicester,Watford,0
135,1,E0,14,01/12/2018,14,2,Man City,Bournemouth,0
136,1,E0,14,01/12/2018,13,19,Newcastle,West Ham,0
137,1,E0,14,01/12/2018,16,15,Southampton,Man United,0
138,1,E0,14,02/12/2018,1,17,Arsenal,Tottenham,0
139,1,E0,14,02/12/2018,6,9,Chelsea,Fulham,0
140,1,E0,14,02/12/2018,12,8,Liverpool,Everton,0
141,1,E0,15,04/12/2018,2,10,Bournemouth,Huddersfield,0
142,1,E0,15,04/12/2018,3,7,Brighton,Crystal Palace,0
143,1,E0,15,04/12/2018,18,14,Watford,Man City,0
144,1,E0,15,04/12/2018,19,5,West Ham,Cardiff,0
145,1,E0,15,05/12/2018,4,12,Burnley,Liverpool,0
146,1,E0,15,05/12/2018,8,13,Everton,Newcastle,0
147,1,E0,15,05/12/2018,9,11,Fulham,Leicester,0
148,1,E0,15,05/12/2018,15,1,Man United,Arsenal,0
149,1,E0,15,05/12/2018,17,16,Tottenham,Southampton,0
150,1,E0,15,05/12/2018,20,6,Wolves,Chelsea,0
151,1,E0,16,08/12/2018,1,10,Arsenal,Huddersfield,0
152,1,E0,16,08/12/2018,2,12,Bournemouth,Liverpool,0
153,1,E0,16,08/12/2018,4,3,Burnley,Brighton,0
154,1,E0,16,08/12/2018,5,16,Cardiff,Southampton,0
155,1,E0,16,08/12/2018,6,14,Chelsea,Man City,0
156,1,E0,16,08/12/2018,11,17,Leicester,Tottenham,0
157,1,E0,16,08/12/2018,15,9,Man United,Fulham,0
158,1,E0,16,08/12/2018,19,7,West Ham,Crystal Palace,0
159,1,E0,16,09/12/2018,13,20,Newcastle,Wolves,0
160,1,E0,16,10/12/2018,8,18,Everton,Watford,0
161,1,E0,17,15/12/2018,7,11,Crystal Palace,Leicester,0
162,1,E0,17,15/12/2018,9,19,Fulham,West Ham,0
163,1,E0,17,15/12/2018,10,3,Huddersfield,Newcastle,0
164,1,E0,17,15/12/2018,14,8,Man City,Everton,0
165,1,E0,17,15/12/2018,17,4,Tottenham,Burnley,0
166,1,E0,17,15/12/2018,18,5,Watford,Cardiff,0
167,1,E0,17,15/12/2018,20,2,Wolves,Bournemouth,0
168,1,E0,17,16/12/2018,3,6,Brighton,Chelsea,0
169,1,E0,17,16/12/2018,12,15,Liverpool,Man United,0
170,1,E0,17,16/12/2018,16,1,Southampton,Arsenal,0
171,1,E0,18,21/12/2018,20,12,Wolves,Liverpool,0
172,1,E0,18,22/12/2018,1,4,Arsenal,Burnley,0
173,1,E0,18,22/12/2018,2,3,Bournemouth,Brighton,0
174,1,E0,18,22/12/2018,5,15,Cardiff,Man United,0
175,1,E0,18,22/12/2018,6,11,Chelsea,Leicester,0
176,1,E0,18,22/12/2018,10,16,Huddersfield,Southampton,0
177,1,E0,18,22/12/2018,14,7,Man City,Crystal Palace,0
178,1,E0,18,22/12/2018,13,9,Newcastle,Fulham,0
179,1,E0,18,22/12/2018,19,18,West Ham,Watford,0
180,1,E0,18,23/12/2018,8,17,Everton,Tottenham,0
181,1,E0,19,26/12/2018,3,1,Brighton,Arsenal,0
182,1,E0,19,26/12/2018,4,8,Burnley,Everton,0
183,1,E0,19,26/12/2018,7,5,Crystal Palace,Cardiff,0
184,1,E0,19,26/12/2018,9,20,Fulham,Wolves,0
185,1,E0,19,26/12/2018,11,14,Leicester,Man City,0
186,1,E0,19,26/12/2018,12,13,Liverpool,Newcastle,0
187,1,E0,19,26/12/2018,15,10,Man United,Huddersfield,0
188,1,E0,19,26/12/2018,17,2,Tottenham,Bournemouth,0
189,1,E0,19,26/12/2018,18,6,Watford,Chelsea,0
190,1,E0,19,27/12/2018,16,19,Southampton,West Ham,0
191,1,E0,20,29/12/2018,3,8,Brighton,Everton,0
192,1,E0,20,29/12/2018,9,10,Fulham,Huddersfield,0
193,1,E0,20,29/12/2018,11,5,Leicester,Cardiff,0
194,1,E0,20,29/12/2018,12,1,Liverpool,Arsenal,0
195,1,E0,20,29/12/2018,17,20,Tottenham,Wolves,0
196,1,E0,20,29/12/2018,18,13,Watford,Newcastle,0
197,1,E0,20,30/12/2018,4,19,Burnley,West Ham,0
198,1,E0,20,30/12/2018,7,6,Crystal Palace,Chelsea,0
199,1,E0,20,30/12/2018,15,2,Man United,Bournemouth,0
200,1,E0,20,30/12/2018,16,14,Southampton,Man City,0
201,1,E0,21,01/01/2019,1,9,Arsenal,Fulham,0
202,1,E0,21,01/01/2019,5,17,Cardiff,Tottenham,0
203,1,E0,21,01/01/2019,8,11,Everton,Leicester,0
204,1,E0,21,02/01/2019,2,18,Bournemouth,Watford,0
205,1,E0,21,02/01/2019,6,16,Chelsea,Southampton,0
206,1,E0,21,02/01/2019,10,4,Huddersfield,Burnley,0
207,1,E0,21,02/01/2019,13,15,Newcastle,Man United,0
208,1,E0,21,02/01/2019,19,3,West Ham,Brighton,0
209,1,E0,21,02/01/2019,20,7,Wolves,Crystal Palace,0
210,1,E0,21,03/01/2019,14,12,Man City,Liverpool,0
211,1,E0,22,12/01/2019,3,12,Brighton,Liverpool,0
212,1,E0,22,12/01/2019,4,9,Burnley,Fulham,0
213,1,E0,22,12/01/2019,5,10,Cardiff,Huddersfield,0
214,1,E0,22,12/01/2019,6,13,Chelsea,Newcastle,0
215,1,E0,22,12/01/2019,7,18,Crystal Palace,Watford,0
216,1,E0,22,12/01/2019,11,16,Leicester,Southampton,0
217,1,E0,22,12/01/2019,19,1,West Ham,Arsenal,0
218,1,E0,22,13/01/2019,8,2,Everton,Bournemouth,0
219,1,E0,22,13/01/2019,17,15,Tottenham,Man United,0
220,1,E0,22,14/01/2019,14,20,Man City,Wolves,0
221,1,E0,23,19/01/2019,1,6,Arsenal,Chelsea,0
222,1,E0,23,19/01/2019,2,19,Bournemouth,West Ham,0
223,1,E0,23,19/01/2019,12,7,Liverpool,Crystal Palace,0
224,1,E0,23,19/01/2019,15,3,Man United,Brighton,0
225,1,E0,23,19/01/2019,13,5,Newcastle,Cardiff,0
226,1,E0,23,19/01/2019,16,8,Southampton,Everton,0
227,1,E0,23,19/01/2019,18,4,Watford,Burnley,0
228,1,E0,23,19/01/2019,20,11,Wolves,Leicester,0
229,1,E0,23,20/01/2019,9,17,Fulham,Tottenham,0
230,1,E0,23,20/01/2019,10,14,Huddersfield,Man City,0
231,1,E0,24,29/01/2019,1,5,Arsenal,Cardiff,0
232,1,E0,24,29/01/2019,9,3,Fulham,Brighton,0
233,1,E0,24,29/01/2019,10,8,Huddersfield,Everton,0
234,1,E0,24,29/01/2019,15,4,Man United,Burnley,0
235,1,E0,24,29/01/2019,13,14,Newcastle,Man City,0
236,1,E0,24,29/01/2019,20,19,Wolves,West Ham,0
237,1,E0,24,30/01/2019,2,6,Bournemouth,Chelsea,0
238,1,E0,24,30/01/2019,12,11,Liverpool,Leicester,0
239,1,E0,24,30/01/2019,16,7,Southampton,Crystal Palace,0
240,1,E0,24,30/01/2019,17,18,Tottenham,Watford,0
241,1,E0,25,02/02/2019,3,18,Brighton,Watford,0
242,1,E0,25,02/02/2019,4,16,Burnley,Southampton,0
243,1,E0,25,02/02/2019,5,2,Cardiff,Bournemouth,0
244,1,E0,25,02/02/2019,6,10,Chelsea,Huddersfield,0
245,1,E0,25,02/02/2019,7,9,Crystal Palace,Fulham,0
246,1,E0,25,02/02/2019,8,20,Everton,Wolves,0
247,1,E0,25,02/02/2019,17,13,Tottenham,Newcastle,0
248,1,E0,25,03/02/2019,11,15,Leicester,Man United,0
249,1,E0,25,03/02/2019,14,1,Man City,Arsenal,0
250,1,E0,25,04/02/2019,19,12,West Ham,Liverpool,0
251,1,E0,26,06/02/2019,8,14,Everton,Man City,0
252,1,E0,26,09/02/2019,3,4,Brighton,Burnley,0
253,1,E0,26,09/02/2019,7,19,Crystal Palace,West Ham,0
254,1,E0,26,09/02/2019,9,15,Fulham,Man United,0
255,1,E0,26,09/02/2019,10,1,Huddersfield,Arsenal,0
256,1,E0,26,09/02/2019,12,2,Liverpool,Bournemouth,0
257,1,E0,26,09/02/2019,16,5,Southampton,Cardiff,0
258,1,E0,26,09/02/2019,18,8,Watford,Everton,0
259,1,E0,26,10/02/2019,14,6,Man City,Chelsea,0
260,1,E0,26,10/02/2019,17,11,Tottenham,Leicester,0
261,1,E0,27,11/02/2019,20,13,Wolves,Newcastle,0
262,1,E0,27,22/02/2019,5,18,Cardiff,Watford,0
263,1,E0,27,22/02/2019,19,9,West Ham,Fulham,0
264,1,E0,27,23/02/2019,2,20,Bournemouth,Wolves,0
265,1,E0,27,23/02/2019,4,17,Burnley,Tottenham,0
266,1,E0,27,23/02/2019,11,7,Leicester,Crystal Palace,0
267,1,E0,27,23/02/2019,13,10,Newcastle,Huddersfield,0
268,1,E0,27,24/02/2019,1,16,Arsenal,Southampton,0
269,1,E0,27,24/02/2019,15,12,Man United,Liverpool,0
270,1,E0,27,26/02/2019,5,8,Cardiff,Everton,0
271,1,E0,28,26/02/2019,10,20,Huddersfield,Wolves,0
272,1,E0,28,26/02/2019,11,3,Leicester,Brighton,0
273,1,E0,28,26/02/2019,13,4,Newcastle,Burnley,0
274,1,E0,28,27/02/2019,1,2,Arsenal,Bournemouth,0
275,1,E0,28,27/02/2019,6,17,Chelsea,Tottenham,0
276,1,E0,28,27/02/2019,7,15,Crystal Palace,Man United,0
277,1,E0,28,27/02/2019,12,18,Liverpool,Watford,0
278,1,E0,28,27/02/2019,14,19,Man City,West Ham,0
279,1,E0,28,27/02/2019,16,9,Southampton,Fulham,0
280,1,E0,28,02/03/2019,2,14,Bournemouth,Man City,0
281,1,E0,29,02/03/2019,3,10,Brighton,Huddersfield,0
282,1,E0,29,02/03/2019,4,7,Burnley,Crystal Palace,0
283,1,E0,29,02/03/2019,15,16,Man United,Southampton,0
284,1,E0,29,02/03/2019,17,1,Tottenham,Arsenal,0
285,1,E0,29,02/03/2019,19,13,West Ham,Newcastle,0
286,1,E0,29,02/03/2019,20,5,Wolves,Cardiff,0
287,1,E0,29,03/03/2019,8,12,Everton,Liverpool,0
288,1,E0,29,03/03/2019,9,6,Fulham,Chelsea,0
289,1,E0,29,03/03/2019,18,11,Watford,Leicester,0
290,1,E0,29,09/03/2019,5,19,Cardiff,West Ham,0
291,1,E0,30,09/03/2019,7,3,Crystal Palace,Brighton,0
292,1,E0,30,09/03/2019,10,2,Huddersfield,Bournemouth,0
293,1,E0,30,09/03/2019,11,9,Leicester,Fulham,0
294,1,E0,30,09/03/2019,14,18,Man City,Watford,0
295,1,E0,30,09/03/2019,13,8,Newcastle,Everton,0
296,1,E0,30,09/03/2019,16,17,Southampton,Tottenham,0
297,1,E0,30,10/03/2019,1,15,Arsenal,Man United,0
298,1,E0,30,10/03/2019,6,20,Chelsea,Wolves,0
299,1,E0,30,10/03/2019,12,4,Liverpool,Burnley,0
300,1,E0,30,16/03/2019,2,13,Bournemouth,Newcastle,0
301,1,E0,31,16/03/2019,4,11,Burnley,Leicester,0
302,1,E0,31,16/03/2019,19,10,West Ham,Huddersfield,0
303,1,E0,31,17/03/2019,8,6,Everton,Chelsea,0
304,1,E0,31,17/03/2019,9,12,Fulham,Liverpool,0
305,1,E0,31,30/03/2019,3,16,Brighton,Southampton,0
306,1,E0,31,30/03/2019,4,20,Burnley,Wolves,0
307,1,E0,31,30/03/2019,7,10,Crystal Palace,Huddersfield,0
308,1,E0,31,30/03/2019,9,14,Fulham,Man City,0
309,1,E0,31,30/03/2019,11,2,Leicester,Bournemouth,0
310,1,E0,31,30/03/2019,15,18,Man United,Watford,0
311,1,E0,32,30/03/2019,19,8,West Ham,Everton,0
312,1,E0,32,31/03/2019,5,6,Cardiff,Chelsea,0
313,1,E0,32,31/03/2019,12,17,Liverpool,Tottenham,0
314,1,E0,32,01/04/2019,1,13,Arsenal,Newcastle,0
315,1,E0,32,02/04/2019,18,9,Watford,Fulham,0
316,1,E0,32,02/04/2019,20,15,Wolves,Man United,0
317,1,E0,32,03/04/2019,6,3,Chelsea,Brighton,0
318,1,E0,32,03/04/2019,14,5,Man City,Cardiff,0
319,1,E0,32,03/04/2019,17,7,Tottenham,Crystal Palace,0
320,1,E0,32,05/04/2019,16,12,Southampton,Liverpool,0
321,1,E0,33,06/04/2019,2,4,Bournemouth,Burnley,0
322,1,E0,33,06/04/2019,10,11,Huddersfield,Leicester,0
323,1,E0,33,06/04/2019,13,7,Newcastle,Crystal Palace,0
324,1,E0,33,07/04/2019,8,1,Everton,Arsenal,0
325,1,E0,33,08/04/2019,6,19,Chelsea,West Ham,0
326,1,E0,33,12/04/2019,11,13,Leicester,Newcastle,0
327,1,E0,33,13/04/2019,3,2,Brighton,Bournemouth,0
328,1,E0,33,13/04/2019,4,5,Burnley,Cardiff,0
329,1,E0,33,13/04/2019,9,8,Fulham,Everton,0
330,1,E0,33,13/04/2019,15,19,Man United,West Ham,0
331,1,E0,34,13/04/2019,16,20,Southampton,Wolves,0
332,1,E0,34,13/04/2019,17,10,Tottenham,Huddersfield,0
333,1,E0,34,14/04/2019,7,14,Crystal Palace,Man City,0
334,1,E0,34,14/04/2019,12,6,Liverpool,Chelsea,0
335,1,E0,34,15/04/2019,18,1,Watford,Arsenal,0
336,1,E0,34,16/04/2019,3,5,Brighton,Cardiff,0
337,1,E0,34,20/04/2019,2,9,Bournemouth,Fulham,0
338,1,E0,34,20/04/2019,10,18,Huddersfield,Watford,0
339,1,E0,34,20/04/2019,14,17,Man City,Tottenham,0
340,1,E0,34,20/04/2019,13,16,Newcastle,Southampton,0
341,1,E0,35,20/04/2019,19,11,West Ham,Leicester,0
342,1,E0,35,20/04/2019,20,3,Wolves,Brighton,0
343,1,E0,35,21/04/2019,1,7,Arsenal,Crystal Palace,0
344,1,E0,35,21/04/2019,5,12,Cardiff,Liverpool,0
345,1,E0,35,21/04/2019,8,15,Everton,Man United,0
346,1,E0,35,22/04/2019,6,4,Chelsea,Burnley,0
347,1,E0,35,23/04/2019,17,3,Tottenham,Brighton,0
348,1,E0,35,23/04/2019,18,16,Watford,Southampton,0
349,1,E0,35,24/04/2019,15,14,Man United,Man City,0
350,1,E0,35,24/04/2019,20,1,Wolves,Arsenal,0
351,1,E0,36,26/04/2019,12,10,Liverpool,Huddersfield,0
352,1,E0,36,27/04/2019,3,13,Brighton,Newcastle,0
353,1,E0,36,27/04/2019,7,8,Crystal Palace,Everton,0
354,1,E0,36,27/04/2019,9,5,Fulham,Cardiff,0
355,1,E0,36,27/04/2019,16,2,Southampton,Bournemouth,0
356,1,E0,36,27/04/2019,17,19,Tottenham,West Ham,0
357,1,E0,36,27/04/2019,18,20,Watford,Wolves,0
358,1,E0,36,28/04/2019,4,14,Burnley,Man City,0
359,1,E0,36,28/04/2019,11,1,Leicester,Arsenal,0
360,1,E0,36,28/04/2019,15,6,Man United,Chelsea,0
361,1,E0,37,03/05/2019,8,4,Everton,Burnley,0
362,1,E0,37,04/05/2019,2,17,Bournemouth,Tottenham,0
363,1,E0,37,04/05/2019,5,7,Cardiff,Crystal Palace,0
364,1,E0,37,04/05/2019,13,12,Newcastle,Liverpool,0
365,1,E0,37,04/05/2019,19,16,West Ham,Southampton,0
366,1,E0,37,04/05/2019,20,9,Wolves,Fulham,0
367,1,E0,37,05/05/2019,1,3,Arsenal,Brighton,0
368,1,E0,37,05/05/2019,6,18,Chelsea,Watford,0
369,1,E0,37,05/05/2019,10,15,Huddersfield,Man United,0
370,1,E0,37,06/05/2019,14,11,Man City,Leicester,0
371,1,E0,38,12/05/2019,3,14,Brighton,Man City,0
372,1,E0,38,12/05/2019,4,1,Burnley,Arsenal,0
373,1,E0,38,12/05/2019,7,2,Crystal Palace,Bournemouth,0
374,1,E0,38,12/05/2019,9,13,Fulham,Newcastle,0
375,1,E0,38,12/05/2019,11,6,Leicester,Chelsea,0
376,1,E0,38,12/05/2019,12,20,Liverpool,Wolves,0
377,1,E0,38,12/05/2019,15,5,Man United,Cardiff,0
378,1,E0,38,12/05/2019,16,10,Southampton,Huddersfield,0
379,1,E0,38,12/05/2019,17,8,Tottenham,Everton,0
380,1,E0,38,12/05/2019,18,19,Watford,West Ham,0
