﻿1,1,15,425,73,2
2,1,15,423,33,2
3,1,15,439,77,2
4,1,15,425,35,2
5,1,15,422,81,2
6,1,15,424,29,2
7,1,15,423,81,2
8,1,15,430,3,2
9,1,15,424,35,2
10,1,11,323,53,2
11,1,11,323,33,2
12,1,11,330,2,2
13,1,11,322,46,2
14,1,11,324,67,2
15,1,11,330,17,2
16,1,11,323,21,2
17,1,15,430,7,1
18,1,15,424,58,1
19,1,11,334,14,1
20,2,2,44,18,2
21,2,2,34,75,2
22,2,2,51,57,2
23,2,2,51,14,2
24,2,2,55,54,2
25,2,2,39,70,2
26,2,2,43,72,2
27,2,2,40,23,2
28,2,2,43,0,2
29,2,2,34,76,2
30,2,5,133,19,2
31,2,5,142,1,2
32,2,5,137,38,2
33,2,5,137,32,2
34,2,5,133,48,2
35,2,5,138,77,2
36,2,5,140,33,2
37,2,5,133,69,2
38,2,2,41,5,1
39,2,5,137,40,1
40,3,9,275,79,2
41,3,9,270,63,2
42,3,9,278,21,2
43,3,9,274,87,2
44,3,9,275,77,2
45,3,9,271,12,2
46,3,9,271,20,2
47,3,9,263,67,2
48,3,7,199,74,2
49,3,7,208,12,2
50,3,7,199,20,2
51,3,7,200,1,2
52,3,7,201,10,2
53,3,7,205,77,2
54,3,7,206,74,2
55,3,7,211,32,2
56,3,7,203,9,2
57,3,9,271,67,1
58,3,7,199,9,1
59,3,7,209,20,1
60,4,10,312,89,2
61,4,10,312,32,2
62,4,10,313,72,2
63,4,10,296,47,2
64,4,10,293,88,2
65,4,10,313,32,2
66,4,10,300,32,2
67,4,6,168,62,2
68,4,6,167,24,2
69,4,6,167,7,2
70,4,6,169,65,2
71,4,6,165,5,2
72,4,6,166,8,2
73,4,6,168,67,2
74,4,10,302,84,1
75,4,10,301,9,1
76,4,6,173,50,1
77,5,13,461,81,2
78,5,13,463,15,2
79,5,13,456,60,2
80,5,13,460,84,2
81,5,13,460,63,2
82,5,13,456,59,2
83,5,13,462,26,2
84,5,13,461,11,2
85,5,13,464,20,2
86,5,17,522,54,2
87,5,17,523,82,2
88,5,17,527,53,2
89,5,17,525,54,2
90,5,17,528,72,2
91,5,17,525,2,2
92,5,17,533,61,2
93,5,17,522,68,2
94,5,17,529,23,2
95,5,17,529,56,2
96,5,13,469,20,1
97,5,13,455,71,1
98,5,17,530,68,1
99,5,17,524,26,1
100,6,18,564,24,2
101,6,18,569,11,2
102,6,18,571,52,2
103,6,18,553,45,2
104,6,18,565,70,2
105,6,18,568,67,2
106,6,18,568,5,2
107,6,18,565,35,2
108,6,3,69,67,2
109,6,3,74,3,2
110,6,3,69,72,2
111,6,3,73,78,2
112,6,3,72,8,2
113,6,3,71,61,2
114,6,3,78,6,2
115,6,3,76,85,2
116,6,3,74,0,2
117,6,3,83,40,2
118,6,3,73,16,2
119,6,3,72,83,2
120,6,3,76,28,2
121,6,3,71,64,2
122,6,18,571,22,1
123,6,18,559,63,1
124,6,3,73,23,1
125,6,3,71,73,1
126,7,20,620,47,2
127,7,20,613,89,2
128,7,20,607,64,2
129,7,20,617,17,2
130,7,20,606,71,2
131,7,20,616,36,2
132,7,20,615,57,2
133,7,20,616,25,2
134,7,8,236,6,2
135,7,8,234,61,2
136,7,8,242,44,2
137,7,8,234,35,2
138,7,8,239,59,2
139,7,8,236,83,1
140,7,8,237,17,0
141,8,1,10,15,2
142,8,1,1,64,2
143,8,1,1,57,2
144,8,1,7,86,2
145,8,1,12,13,2
146,8,1,2,11,2
147,8,1,12,51,2
148,8,1,1,66,2
149,8,1,12,59,2
150,8,14,397,44,2
151,8,14,402,54,2
152,8,14,393,69,2
153,8,14,390,39,2
154,8,14,392,19,2
155,8,14,397,89,2
156,8,14,398,4,2
157,8,14,390,57,2
158,8,14,400,10,2
159,8,14,402,11,2
160,8,14,393,62,2
161,8,14,397,65,2
162,8,1,1,80,1
163,8,1,6,4,1
164,8,14,391,64,1
165,8,14,398,25,1
166,9,12,366,48,2
167,9,12,366,4,2
168,9,12,356,67,2
169,9,12,362,55,2
170,9,12,367,2,2
171,9,12,361,25,2
172,9,12,355,60,2
173,9,12,361,81,2
174,9,12,367,43,2
175,9,12,369,14,2
176,9,12,356,32,2
177,9,12,356,80,2
178,9,12,362,2,2
179,9,19,583,43,2
180,9,19,578,33,2
181,9,19,580,24,2
182,9,19,575,14,2
183,9,19,576,39,2
184,9,19,583,30,2
185,9,19,579,71,2
186,9,12,356,9,1
187,9,19,583,3,1
188,9,19,575,76,1
189,10,16,493,31,2
190,10,16,489,27,2
191,10,16,488,14,2
192,10,16,507,86,2
193,10,16,496,82,2
194,10,16,499,24,2
195,10,16,489,16,2
196,10,16,495,7,2
197,10,16,493,81,2
198,10,16,507,86,2
199,10,4,107,4,2
200,10,4,103,22,2
201,10,4,107,36,2
202,10,4,103,14,2
203,10,4,107,12,2
204,10,4,103,42,2
205,10,4,102,19,2
206,10,4,111,47,2
207,10,4,114,49,1
208,11,5,146,66,2
209,11,5,138,88,2
210,11,5,138,30,2
211,11,5,133,83,2
212,11,5,140,15,2
213,11,5,136,70,2
214,11,5,151,89,2
215,11,5,141,27,2
216,11,5,139,34,2
217,11,5,139,66,2
218,11,5,138,0,2
219,11,5,138,39,2
220,11,13,454,73,2
221,11,13,463,0,2
222,11,13,455,50,2
223,11,13,455,33,2
224,11,13,478,46,2
225,11,13,461,51,2
226,11,13,461,45,2
227,11,13,478,24,2
228,11,13,456,84,2
229,11,13,460,82,2
230,11,13,455,63,2
231,11,13,462,78,2
232,11,13,454,81,2
233,11,5,142,44,1
234,11,5,146,54,1
235,11,13,462,60,1
236,11,13,460,81,1
237,11,13,454,61,0
238,12,6,181,39,2
239,12,6,183,39,2
240,12,6,176,6,2
241,12,6,184,42,2
242,12,6,175,29,2
243,12,6,175,32,2
244,12,6,163,13,2
245,12,6,175,43,2
246,12,6,171,62,2
247,12,6,164,43,2
248,12,6,183,24,2
249,12,6,164,57,2
250,12,1,3,83,2
251,12,1,11,24,2
252,12,1,5,41,2
253,12,1,11,87,2
254,12,1,6,1,2
255,12,1,6,61,2
256,12,1,12,36,2
257,12,1,8,77,1
258,12,1,8,11,1
259,13,8,236,19,2
260,13,8,232,42,2
261,13,8,242,15,2
262,13,8,243,38,2
263,13,8,233,21,2
264,13,8,239,0,2
265,13,8,236,22,2
266,13,8,235,69,2
267,13,16,511,12,2
268,13,16,491,82,2
269,13,16,495,84,2
270,13,16,494,47,2
271,13,16,497,59,2
272,13,16,491,32,2
273,13,16,495,50,2
274,13,16,489,29,2
275,13,16,511,2,2
276,13,16,511,15,2
277,13,16,495,2,2
278,13,16,490,47,2
279,13,16,491,6,2
280,13,16,491,53,2
281,13,16,499,39,2
282,13,16,487,11,1
283,13,16,492,50,1
284,13,16,511,88,1
285,13,16,491,69,1
286,13,16,507,71,1
287,14,11,339,31,2
288,14,11,324,0,2
289,14,11,327,15,2
290,14,11,322,22,2
291,14,11,332,34,2
292,14,11,325,42,2
293,14,11,327,74,2
294,14,20,612,59,2
295,14,20,608,67,2
296,14,20,615,31,2
297,14,20,614,25,2
298,14,20,608,18,2
299,14,20,612,2,2
300,14,20,614,5,2
301,14,11,329,41,1
302,14,11,326,60,1
303,14,20,618,32,1
304,14,11,328,10,0
305,15,17,527,59,2
306,15,17,523,73,2
307,15,17,527,23,2
308,15,17,527,73,2
309,15,17,525,39,2
310,15,17,528,74,2
311,15,17,525,12,2
312,15,17,530,79,2
313,15,17,532,57,2
314,15,9,266,73,2
315,15,9,268,8,2
316,15,9,263,64,2
317,15,9,269,3,2
318,15,9,263,30,2
319,16,19,582,65,2
320,16,19,579,57,2
321,16,19,576,37,2
322,16,19,578,21,2
323,16,19,582,54,2
324,16,19,573,33,2
325,16,19,578,75,2
326,16,19,581,31,2
327,16,2,35,65,2
328,16,2,44,71,2
329,16,2,41,68,2
330,16,2,55,79,2
331,16,2,45,85,2
332,16,2,45,14,2
333,16,2,41,79,2
334,16,2,37,14,2
335,16,19,578,10,1
336,16,19,591,89,1
337,16,19,581,4,1
338,16,19,588,15,1
339,16,19,581,46,1
340,16,19,578,3,1
341,16,2,43,89,1
342,16,2,34,20,1
343,17,3,78,23,2
344,17,3,74,54,2
345,17,3,67,27,2
346,17,3,67,78,2
347,17,3,70,27,2
348,17,3,70,50,2
349,17,3,77,28,2
350,17,3,90,0,2
351,17,3,67,79,2
352,17,3,83,59,2
353,17,3,76,59,2
354,17,3,69,20,2
355,17,3,74,76,2
356,17,3,90,78,2
357,17,3,71,7,2
358,17,15,421,62,2
359,17,15,421,70,2
360,17,15,440,81,2
361,17,15,435,84,2
362,17,15,423,28,2
363,17,15,430,2,2
364,17,15,424,21,2
365,17,15,426,29,2
366,17,15,428,1,2
367,17,15,435,27,2
368,17,15,429,76,2
369,17,15,421,42,2
370,17,3,76,42,1
371,17,15,428,14,1
372,18,4,106,66,2
373,18,4,121,51,2
374,18,4,116,57,2
375,18,4,104,56,2
376,18,4,111,13,2
377,18,4,100,36,2
378,18,4,100,43,2
379,18,18,569,28,2
380,18,18,568,6,2
381,18,18,571,49,2
382,18,18,561,53,2
383,18,18,558,35,2
384,18,18,560,3,2
385,18,18,565,5,2
386,18,18,556,38,2
387,18,18,564,5,2
388,18,18,556,88,2
389,18,18,556,19,2
390,18,18,564,1,2
391,18,18,561,44,2
392,18,18,558,83,2
393,18,18,568,45,2
394,18,18,564,8,2
395,18,18,556,0,2
396,18,4,100,36,1
397,18,18,554,72,1
398,18,18,564,7,1
399,19,14,397,24,2
400,19,14,395,3,2
401,19,14,392,40,2
402,19,14,402,79,2
403,19,14,395,4,2
404,19,14,394,11,2
405,19,14,398,50,2
406,19,14,400,77,2
407,19,14,391,57,2
408,19,10,299,70,2
409,19,10,313,83,2
410,19,10,297,19,1
411,19,10,295,19,1
412,20,7,205,8,2
413,20,7,201,46,2
414,20,7,197,14,2
415,20,7,215,48,2
416,20,12,361,46,2
417,20,12,369,43,2
418,20,12,362,27,2
419,20,12,361,58,2
420,20,12,362,28,2
421,20,12,364,59,2
422,20,12,360,58,2
423,20,12,355,2,2
424,20,12,363,74,2
425,20,12,361,13,2
426,20,12,364,37,2
427,20,12,361,7,2
428,20,7,208,82,1
429,20,12,358,80,1
430,20,7,211,14,0
431,21,1,20,87,2
432,21,1,15,87,2
433,21,1,1,0,2
434,21,1,2,24,2
435,21,1,10,28,2
436,21,1,8,2,2
437,21,1,15,29,2
438,21,1,6,68,2
439,21,1,5,51,2
440,21,1,11,22,2
441,21,1,4,79,2
442,21,1,20,65,2
443,21,1,11,12,2
444,21,1,12,23,2
445,21,1,15,42,2
446,21,19,583,36,2
447,21,19,595,39,2
448,21,19,576,20,2
449,21,19,581,88,2
450,21,19,573,29,2
451,21,19,582,31,2
452,21,19,573,72,2
453,21,19,579,48,2
454,21,19,595,73,2
455,21,19,579,45,2
456,21,1,7,49,1
457,21,19,573,68,1
458,21,19,576,4,1
459,21,19,591,39,1
460,22,2,41,52,2
461,22,2,36,28,2
462,22,2,44,83,2
463,22,2,45,36,2
464,22,2,38,79,2
465,22,2,35,47,2
466,22,2,42,8,2
467,22,2,44,82,2
468,22,2,37,51,2
469,22,2,35,66,2
470,22,2,35,23,2
471,22,8,234,62,2
472,22,8,234,76,2
473,22,8,232,29,2
474,22,8,239,27,2
475,22,8,234,32,2
476,22,8,232,89,2
477,22,8,234,23,1
478,22,8,234,64,1
479,22,8,238,46,1
480,22,2,36,25,0
481,22,8,230,58,0
482,23,10,301,55,2
483,23,10,301,70,2
484,23,10,299,6,2
485,23,10,303,31,2
486,23,10,312,52,2
487,23,10,294,25,2
488,23,10,299,64,2
489,23,5,143,33,2
490,23,5,140,84,2
491,23,5,141,34,2
492,23,5,136,7,2
493,23,5,136,74,2
494,23,5,142,83,2
495,23,5,137,25,2
496,23,5,151,76,2
497,23,5,145,82,2
498,23,5,136,44,1
499,23,10,300,10,0
500,24,12,356,66,2
501,24,12,369,58,2
502,24,12,366,70,2
503,24,12,360,10,2
504,24,12,356,27,2
505,24,12,357,3,2
506,24,12,356,6,2
507,24,3,73,24,2
508,24,3,68,1,2
509,24,3,75,85,2
510,24,3,73,13,2
511,24,3,68,27,2
512,24,3,67,24,2
513,24,3,76,29,2
514,24,3,72,75,2
515,24,3,74,53,2
516,24,3,68,85,2
517,24,3,76,49,2
518,24,3,73,6,2
519,24,3,72,16,2
520,24,12,362,26,1
521,24,3,71,59,1
522,25,16,494,84,2
523,25,16,491,87,2
524,25,16,496,2,2
525,25,16,497,3,2
526,25,16,497,33,2
527,25,16,507,70,2
528,25,16,493,39,2
529,25,16,488,18,2
530,25,16,490,48,2
531,25,16,493,55,2
532,25,16,494,50,2
533,25,11,322,17,2
534,25,11,334,8,2
535,25,11,323,64,2
536,25,11,332,30,2
537,25,11,334,8,2
538,25,11,332,74,2
539,25,11,339,52,2
540,25,11,333,75,2
541,25,11,328,5,2
542,25,11,330,5,2
543,25,16,495,25,1
544,25,11,326,51,1
545,25,16,511,61,0
546,26,20,617,14,2
547,26,20,613,39,2
548,26,20,606,30,2
549,26,20,610,28,2
550,26,20,608,48,2
551,26,20,611,82,2
552,26,20,608,41,2
553,26,20,617,0,2
554,26,20,612,16,2
555,26,20,617,80,2
556,26,20,617,88,2
557,26,20,606,47,2
558,26,14,393,6,2
559,26,14,392,78,2
560,26,14,398,43,2
561,26,14,394,1,2
562,26,14,407,81,2
563,26,14,388,65,2
564,26,20,614,65,1
565,26,14,407,79,1
566,26,14,390,38,1
567,27,9,278,35,2
568,27,9,265,50,2
569,27,9,272,87,2
570,27,9,262,19,2
571,27,9,262,29,2
572,27,9,270,60,2
573,27,9,262,27,2
574,27,9,275,21,2
575,27,9,264,52,2
576,27,4,116,68,2
577,27,4,109,38,2
578,27,4,107,50,2
579,27,4,106,23,2
580,27,4,105,31,2
581,27,4,103,32,2
582,27,4,108,64,2
583,27,9,264,62,1
584,27,9,268,29,1
585,27,4,105,22,1
586,28,13,461,71,2
587,28,13,472,9,2
588,28,13,478,45,2
589,28,13,455,33,2
590,28,13,462,15,2
591,28,13,469,89,2
592,28,13,478,6,2
593,28,13,455,48,2
594,28,13,469,9,2
595,28,13,469,19,2
596,28,13,478,21,2
597,28,13,469,22,2
598,28,13,464,75,2
599,28,6,166,62,2
600,28,6,183,79,2
601,28,6,171,37,2
602,28,6,173,9,2
603,28,6,164,47,2
604,28,6,183,11,2
605,28,6,171,54,2
606,28,13,458,57,1
607,28,13,458,12,1
608,28,13,464,30,1
609,28,6,163,7,1
610,29,18,555,8,2
611,29,18,565,3,2
612,29,18,561,31,2
613,29,18,553,68,2
614,29,18,554,8,2
615,29,18,571,12,2
616,29,18,554,72,2
617,29,18,560,27,2
618,29,18,569,2,2
619,29,18,556,24,2
620,29,7,198,18,2
621,29,7,197,63,2
622,29,7,196,89,2
623,29,7,197,23,2
624,29,7,215,86,2
625,29,7,203,64,2
626,29,7,211,59,2
627,29,7,198,35,2
628,29,7,200,11,2
629,29,18,569,40,1
630,29,18,558,62,1
631,29,18,560,27,1
632,29,18,553,63,1
633,29,7,198,25,1
634,29,7,198,54,1
635,30,15,440,32,2
636,30,15,424,70,2
637,30,15,421,20,2
638,30,15,426,4,2
639,30,15,440,6,2
640,30,15,428,55,2
641,30,15,440,48,2
642,30,15,439,1,2
643,30,15,421,31,2
644,30,17,523,23,2
645,30,17,542,56,2
646,30,17,525,38,2
647,30,17,522,42,2
648,30,17,529,78,2
649,30,17,526,5,2
650,30,17,522,66,2
651,30,17,523,26,2
652,30,17,528,41,2
653,30,17,526,32,2
654,30,17,529,7,2
655,30,17,532,32,2
656,30,15,435,4,1
657,30,15,431,76,1
658,30,17,523,57,1
659,30,17,521,50,1
660,30,17,527,86,1
661,30,17,529,36,1
662,31,3,77,62,2
663,31,3,68,46,2
664,31,3,70,60,2
665,31,3,74,55,2
666,31,3,72,20,2
667,31,3,76,41,2
668,31,3,83,48,2
669,31,3,78,0,2
670,31,3,76,6,2
671,31,9,275,21,2
672,31,9,267,35,2
673,31,9,274,37,2
674,31,9,265,15,2
675,31,9,265,31,2
676,31,9,264,50,2
677,31,9,264,21,2
678,31,9,263,11,2
679,31,9,267,32,2
680,31,9,271,76,2
681,31,9,274,44,2
682,31,3,71,61,1
683,31,3,68,29,1
684,31,3,83,18,1
685,31,9,271,50,1
686,31,9,271,13,1
687,31,9,268,13,1
688,32,6,166,32,2
689,32,6,167,36,2
690,32,6,165,42,2
691,32,6,168,43,2
692,32,6,163,40,2
693,32,6,173,54,2
694,32,6,166,2,2
695,32,6,166,80,2
696,32,2,40,71,2
697,32,2,55,35,2
698,32,2,44,42,2
699,32,2,44,44,2
700,32,2,51,23,2
701,32,6,163,86,1
702,32,6,181,47,1
703,32,2,39,13,1
704,32,2,43,78,1
705,33,7,209,87,2
706,33,7,208,57,2
707,33,7,199,69,2
708,33,7,209,13,2
709,33,7,196,20,2
710,33,7,209,38,2
711,33,7,202,71,2
712,33,7,203,10,2
713,33,7,198,60,2
714,33,7,197,40,2
715,33,16,491,56,2
716,33,16,489,29,2
717,33,16,497,67,2
718,33,16,491,28,2
719,33,16,507,68,2
720,33,16,497,37,2
721,33,16,489,67,2
722,33,16,488,83,2
723,33,16,511,31,2
724,33,16,507,40,2
725,33,16,497,52,2
726,33,7,208,80,1
727,33,16,492,53,1
728,34,8,242,5,2
729,34,8,239,68,2
730,34,8,238,15,2
731,34,8,242,53,2
732,34,8,241,3,2
733,34,8,235,31,2
734,34,8,236,23,2
735,34,8,235,58,2
736,34,8,243,3,2
737,34,8,242,32,2
738,34,10,295,68,2
739,34,10,313,39,2
740,34,10,302,64,2
741,34,10,301,82,2
742,34,10,299,45,2
743,34,10,297,64,2
744,34,10,292,46,2
745,34,10,313,18,2
746,34,10,298,51,2
747,34,10,302,4,2
748,34,10,303,52,2
749,34,8,235,75,1
750,34,8,231,56,1
751,34,8,230,49,1
752,34,10,301,28,1
753,34,10,313,28,1
754,34,10,301,2,1
755,35,11,324,80,2
756,35,11,323,5,2
757,35,11,322,21,2
758,35,11,323,19,2
759,35,11,334,34,2
760,35,11,339,22,2
761,35,12,358,0,2
762,35,12,366,21,2
763,35,12,356,74,2
764,35,12,363,57,2
765,35,12,363,47,2
766,35,12,365,89,2
767,35,12,362,12,2
768,35,12,364,47,2
769,35,12,362,77,2
770,35,12,356,41,2
771,35,11,330,32,1
772,35,11,333,18,1
773,35,11,325,85,1
774,35,12,363,38,1
775,35,12,361,5,1
776,36,14,391,75,2
777,36,14,391,87,2
778,36,14,396,23,2
779,36,14,398,89,2
780,36,14,388,20,2
781,36,13,456,14,2
782,36,13,456,46,2
783,36,13,463,18,2
784,36,13,456,36,2
785,36,13,463,4,2
786,36,13,457,44,2
787,36,13,456,23,2
788,36,13,458,52,2
789,36,13,463,55,2
790,36,13,460,75,2
791,36,13,462,3,2
792,36,13,462,23,2
793,36,13,461,73,2
794,37,19,573,22,2
795,37,19,580,9,2
796,37,19,588,8,2
797,37,19,591,1,2
798,37,19,579,9,2
799,37,19,575,44,2
800,37,19,588,43,2
801,37,19,574,49,2
802,37,20,609,16,2
803,37,20,613,32,2
804,37,20,608,67,2
805,37,20,608,75,2
806,37,20,620,55,2
807,37,20,613,50,2
808,37,20,617,41,2
809,37,20,607,84,2
810,37,20,610,84,2
811,37,20,617,40,2
812,37,19,591,4,1
813,37,19,579,13,1
814,37,20,614,79,1
815,38,4,104,42,2
816,38,4,121,77,2
817,38,4,114,34,2
818,38,4,104,69,2
819,38,4,104,19,2
820,38,15,421,35,2
821,38,15,430,11,2
822,38,15,440,43,2
823,38,15,421,56,2
824,38,15,435,48,2
825,38,15,422,22,2
826,38,15,429,15,2
827,38,15,440,46,2
828,38,15,427,27,2
829,38,4,104,15,1
830,38,4,101,47,1
831,38,15,426,31,1
832,38,15,439,69,1
833,38,15,429,4,1
834,38,15,429,78,0
835,39,5,143,35,2
836,39,5,133,34,2
837,39,5,133,49,2
838,39,5,135,24,2
839,39,5,145,26,2
840,39,5,142,12,2
841,39,5,137,21,2
842,39,5,138,86,2
843,39,5,136,75,2
844,39,1,12,18,2
845,39,1,6,65,2
846,39,1,15,72,2
847,39,1,6,22,2
848,39,1,9,87,2
849,39,1,11,42,2
850,39,1,20,48,2
851,39,1,6,72,2
852,39,1,8,52,2
853,39,1,8,81,2
854,39,5,151,79,1
855,39,5,140,23,1
856,39,5,146,0,1
857,39,1,9,80,1
858,39,1,2,1,1
859,39,1,12,14,1
860,39,1,12,69,1
861,40,18,560,72,2
862,40,18,571,0,2
863,40,18,553,75,2
864,40,18,559,8,2
865,40,18,553,70,2
866,40,18,568,7,2
867,40,18,568,29,2
868,40,17,520,28,2
869,40,17,542,49,2
870,40,17,532,56,2
871,40,17,525,65,2
872,40,17,522,9,2
873,40,17,532,46,2
874,40,17,522,8,2
875,40,18,564,23,1
876,40,18,565,84,1
877,40,17,532,15,1
878,41,2,44,58,2
879,41,2,37,5,2
880,41,2,44,82,2
881,41,2,45,86,2
882,41,2,40,75,2
883,41,2,45,78,2
884,41,2,45,57,2
885,41,2,42,84,2
886,41,2,36,59,2
887,41,2,45,82,2
888,41,11,324,1,2
889,41,11,330,48,2
890,41,11,339,34,2
891,41,11,329,28,2
892,41,11,322,6,2
893,41,11,322,83,2
894,41,11,324,61,2
895,41,11,334,60,2
896,41,11,339,56,2
897,41,11,324,39,2
898,41,11,327,3,2
899,41,11,332,83,2
900,41,2,45,58,1
901,41,2,39,56,1
902,41,2,45,8,1
903,41,11,339,51,1
904,41,11,329,43,1
905,41,11,329,25,0
906,42,6,164,27,2
907,42,6,181,87,2
908,42,6,167,71,2
909,42,6,176,14,2
910,42,6,173,79,2
911,42,6,175,61,2
912,42,6,167,20,2
913,42,6,183,88,2
914,42,5,145,8,2
915,42,5,135,49,2
916,42,5,140,29,2
917,42,5,134,81,2
918,42,5,141,58,2
919,42,5,146,21,2
920,42,5,136,74,2
921,42,5,138,64,2
922,42,5,142,13,2
923,42,5,134,0,2
924,43,10,303,2,2
925,43,10,296,86,2
926,43,10,293,18,2
927,43,10,303,9,2
928,43,10,301,43,2
929,43,10,295,55,2
930,43,10,294,80,2
931,43,10,295,72,2
932,43,10,292,1,2
933,43,10,295,59,2
934,43,7,196,13,2
935,43,7,205,34,2
936,43,7,199,40,2
937,43,7,201,2,2
938,43,7,203,6,2
939,43,7,201,39,2
940,43,7,198,41,2
941,43,7,203,28,2
942,43,7,206,6,2
943,43,7,200,75,2
944,43,7,200,5,2
945,43,7,201,51,2
946,43,7,202,74,2
947,43,7,203,84,2
948,43,7,201,71,2
949,43,10,297,16,1
950,43,7,202,83,1
951,43,7,196,57,1
952,44,14,393,76,2
953,44,14,396,12,2
954,44,14,397,84,2
955,44,14,397,39,2
956,44,14,407,61,2
957,44,14,395,42,2
958,44,14,400,30,2
959,44,9,266,38,2
960,44,9,267,46,2
961,44,9,268,71,2
962,44,9,266,5,2
963,44,9,267,11,2
964,44,9,270,89,2
965,44,9,262,67,2
966,45,13,460,82,2
967,45,13,454,18,2
968,45,13,460,56,2
969,45,13,472,71,2
970,45,13,469,85,2
971,45,13,463,74,2
972,45,13,463,66,2
973,45,13,455,65,2
974,45,13,456,56,2
975,45,13,459,79,2
976,45,13,455,72,2
977,45,13,462,32,2
978,45,13,464,87,2
979,45,1,1,74,2
980,45,1,9,29,2
981,45,1,11,15,2
982,45,1,12,58,2
983,45,1,11,63,2
984,45,1,15,41,2
985,45,1,11,20,2
986,45,1,9,77,2
987,45,1,11,60,2
988,45,1,7,77,2
989,45,1,15,15,2
990,46,17,529,47,2
991,46,17,523,47,2
992,46,17,522,88,2
993,46,17,542,67,2
994,46,17,527,67,2
995,46,17,530,36,2
996,46,17,527,17,2
997,46,17,526,76,2
998,46,17,523,69,2
999,46,17,532,38,2
1000,46,17,523,37,2
1001,46,17,521,27,2
1002,46,17,533,39,2
1003,46,17,520,27,2
1004,46,17,542,89,2
1005,46,17,527,13,2
1006,46,17,524,77,2
1007,46,12,362,0,2
1008,46,12,362,73,2
1009,46,12,359,55,2
1010,46,12,359,87,2
1011,46,12,361,56,2
1012,46,12,363,49,2
1013,46,12,369,15,2
1014,46,12,357,71,2
1015,46,12,356,7,2
1016,46,12,364,69,2
1017,46,12,366,26,2
1018,46,12,365,24,2
1019,46,12,366,39,2
1020,46,12,357,2,2
1021,46,12,361,12,2
1022,46,12,357,30,2
1023,47,18,564,85,2
1024,47,18,557,12,2
1025,47,18,553,70,2
1026,47,18,561,56,2
1027,47,18,560,57,2
1028,47,18,556,57,2
1029,47,18,565,43,2
1030,47,15,439,44,2
1031,47,15,430,8,2
1032,47,15,440,17,2
1033,47,15,428,81,2
1034,47,15,421,51,2
1035,47,15,431,45,2
1036,47,15,430,1,2
1037,47,15,425,1,2
1038,47,15,423,43,2
1039,47,18,560,27,1
1040,47,18,557,45,1
1041,47,15,429,1,1
1042,47,15,427,3,0
1043,48,8,237,19,2
1044,48,8,232,33,2
1045,48,8,242,86,2
1046,48,8,236,37,2
1047,48,8,243,43,2
1048,48,8,236,27,2
1049,48,8,236,17,2
1050,48,8,237,18,2
1051,48,8,243,89,2
1052,48,8,243,52,2
1053,48,8,243,89,2
1054,48,8,243,65,2
1055,48,8,243,43,2
1056,48,19,578,61,2
1057,48,19,577,41,2
1058,48,19,595,86,2
1059,48,19,583,61,2
1060,48,19,573,43,2
1061,48,19,575,65,2
1062,48,19,577,3,2
1063,48,8,234,31,1
1064,48,8,242,65,1
1065,48,19,576,16,1
1066,48,19,579,17,1
1067,48,19,588,12,1
1068,48,19,573,85,1
1069,48,19,573,89,1
1070,49,20,611,9,2
1071,49,20,620,12,2
1072,49,20,620,17,2
1073,49,20,606,58,2
1074,49,20,614,76,2
1075,49,20,613,18,2
1076,49,20,618,22,2
1077,49,20,611,75,2
1078,49,4,105,8,2
1079,49,4,121,33,2
1080,49,4,101,79,2
1081,49,4,100,1,2
1082,49,4,104,30,2
1083,49,20,618,81,1
1084,49,20,615,74,1
1085,49,4,102,45,1
1086,49,4,100,14,1
1087,49,4,100,56,1
1088,49,4,102,23,1
1089,50,16,487,46,2
1090,50,16,496,23,2
1091,50,16,495,16,2
1092,50,16,488,4,2
1093,50,16,494,21,2
1094,50,16,493,70,2
1095,50,16,507,43,2
1096,50,16,511,2,2
1097,50,3,68,40,2
1098,50,3,90,66,2
1099,50,3,83,44,2
1100,50,3,76,37,2
1101,50,3,74,28,2
1102,50,3,76,2,2
1103,50,3,71,40,2
1104,50,3,78,11,2
1105,50,3,67,43,2
1106,50,3,83,18,2
1107,50,16,492,63,1
1108,50,16,487,87,1
1109,50,3,78,46,1
1110,50,3,77,39,1
1111,50,3,72,21,1
1112,51,3,76,36,2
1113,51,3,77,58,2
1114,51,3,73,30,2
1115,51,3,76,7,2
1116,51,3,67,51,2
1117,51,3,90,29,2
1118,51,3,72,38,2
1119,51,3,74,75,2
1120,51,3,73,75,2
1121,51,3,76,46,2
1122,51,3,90,73,2
1123,51,3,71,59,2
1124,51,3,78,25,2
1125,51,17,542,47,2
1126,51,17,522,77,2
1127,51,17,524,81,2
1128,51,17,523,17,2
1129,51,17,532,79,2
1130,51,17,521,36,2
1131,51,17,524,55,2
1132,51,17,521,9,2
1133,51,3,71,81,1
1134,51,3,69,84,1
1135,51,17,525,68,1
1136,52,4,102,74,2
1137,52,4,114,16,2
1138,52,4,121,62,2
1139,52,4,107,74,2
1140,52,4,107,44,2
1141,52,4,114,33,2
1142,52,4,106,23,2
1143,52,4,103,37,2
1144,52,4,116,64,2
1145,52,4,121,85,2
1146,52,4,116,10,2
1147,52,4,102,35,2
1148,52,4,104,32,2
1149,52,4,121,27,2
1150,52,4,116,42,2
1151,52,2,39,14,2
1152,52,2,41,35,2
1153,52,2,38,59,2
1154,52,2,38,0,2
1155,52,2,38,70,2
1156,52,2,34,82,2
1157,52,4,121,32,1
1158,52,4,106,28,1
1159,53,5,137,7,2
1160,53,5,134,36,2
1161,53,5,139,27,2
1162,53,5,133,83,2
1163,53,5,133,82,2
1164,53,14,407,39,2
1165,53,14,397,56,2
1166,53,14,397,31,2
1167,53,5,133,41,1
1168,53,14,392,29,1
1169,54,7,211,87,2
1170,54,7,205,34,2
1171,54,7,211,3,2
1172,54,7,201,43,2
1173,54,7,200,12,2
1174,54,7,209,41,2
1175,54,7,200,82,2
1176,54,13,458,53,2
1177,54,13,456,53,2
1178,54,13,454,73,2
1179,54,13,458,29,2
1180,54,13,456,57,2
1181,54,13,462,25,2
1182,54,13,464,36,2
1183,54,13,457,27,2
1184,54,13,472,68,2
1185,54,13,464,63,2
1186,54,7,196,84,1
1187,54,13,461,72,1
1188,55,9,278,17,2
1189,55,9,271,75,2
1190,55,9,272,3,2
1191,55,9,262,48,2
1192,55,9,265,66,2
1193,55,9,263,11,2
1194,55,9,278,2,2
1195,55,9,274,23,2
1196,55,9,268,2,2
1197,55,18,561,36,2
1198,55,18,560,27,2
1199,55,18,568,7,2
1200,55,18,555,40,2
1201,55,18,565,78,2
1202,55,18,568,89,2
1203,55,18,569,84,2
1204,55,18,569,49,2
1205,55,9,272,44,1
1206,55,9,266,0,1
1207,55,18,553,49,1
1208,56,11,325,36,2
1209,56,11,326,82,2
1210,56,11,328,7,2
1211,56,11,330,54,2
1212,56,11,330,56,2
1213,56,11,334,57,2
1214,56,11,332,55,2
1215,56,11,334,33,2
1216,56,10,299,24,2
1217,56,10,296,35,2
1218,56,10,292,53,2
1219,56,10,312,51,2
1220,56,10,298,3,2
1221,56,10,298,70,2
1222,56,10,297,74,2
1223,56,10,312,51,2
1224,56,10,297,17,2
1225,56,10,293,81,2
1226,56,10,295,54,2
1227,56,10,302,17,2
1228,56,10,294,67,2
1229,56,10,293,40,2
1230,56,10,298,31,2
1231,56,11,333,83,1
1232,56,11,328,85,1
1233,56,10,296,21,1
1234,57,12,359,48,2
1235,57,12,360,19,2
1236,57,12,361,44,2
1237,57,12,364,41,2
1238,57,12,367,8,2
1239,57,12,365,45,2
1240,57,12,355,70,2
1241,57,16,511,51,2
1242,57,16,491,29,2
1243,57,16,495,12,2
1244,57,16,491,22,2
1245,57,16,499,0,2
1246,57,16,497,25,2
1247,57,16,507,88,2
1248,57,16,487,66,2
1249,57,16,492,15,1
1250,57,16,497,70,1
1251,58,15,439,48,2
1252,58,15,440,81,2
1253,58,15,429,76,2
1254,58,15,426,21,2
1255,58,20,607,64,2
1256,58,20,616,58,2
1257,58,20,615,87,2
1258,58,20,611,20,2
1259,58,20,606,11,2
1260,58,20,611,19,2
1261,58,20,615,84,2
1262,58,20,612,87,2
1263,58,20,610,76,2
1264,58,20,614,1,2
1265,58,20,613,88,2
1266,58,20,607,56,2
1267,58,20,616,46,2
1268,58,20,611,7,2
1269,58,20,608,33,2
1270,58,20,611,5,2
1271,58,15,426,38,1
1272,58,20,616,43,1
1273,59,1,3,57,2
1274,59,1,11,88,2
1275,59,1,7,10,2
1276,59,1,9,28,2
1277,59,1,11,14,2
1278,59,1,20,85,2
1279,59,1,10,66,2
1280,59,1,10,23,2
1281,59,1,8,0,2
1282,59,1,7,80,2
1283,59,1,6,63,2
1284,59,1,11,30,2
1285,59,1,20,74,2
1286,59,1,3,22,2
1287,59,1,15,8,2
1288,59,8,236,13,2
1289,59,8,235,76,2
1290,59,8,241,23,2
1291,59,8,239,32,2
1292,59,8,232,54,2
1293,59,8,235,44,2
1294,59,8,232,1,2
1295,59,8,243,49,2
1296,59,8,234,88,2
1297,59,8,241,3,2
1298,59,8,243,36,2
1299,59,1,15,36,1
1300,59,1,15,75,1
1301,59,8,233,41,1
1302,60,19,581,75,2
1303,60,19,573,83,2
1304,60,19,583,36,2
1305,60,19,591,87,2
1306,60,19,582,83,2
1307,60,19,574,31,2
1308,60,19,578,69,2
1309,60,19,582,76,2
1310,60,19,582,62,2
1311,60,6,168,63,2
1312,60,6,184,14,2
1313,60,6,176,75,2
1314,60,6,163,53,2
1315,60,6,167,11,2
1316,60,6,171,38,2
1317,60,6,184,80,2
1318,60,6,171,41,2
1319,60,19,579,60,1
1320,60,19,580,45,1
1321,60,6,167,75,1
1322,61,1,4,14,2
1323,61,1,6,41,2
1324,61,1,20,89,2
1325,61,1,12,76,2
1326,61,1,7,73,2
1327,61,1,20,76,2
1328,61,1,11,40,2
1329,61,1,5,33,2
1330,61,1,20,45,2
1331,61,18,560,18,2
1332,61,18,558,20,2
1333,61,18,559,69,2
1334,61,18,568,87,2
1335,61,18,556,34,2
1336,61,18,565,0,2
1337,61,18,571,16,2
1338,61,18,560,6,2
1339,61,18,560,52,2
1340,61,18,564,16,2
1341,61,18,554,85,2
1342,61,18,558,61,2
1343,61,18,571,58,2
1344,61,18,558,47,2
1345,61,18,555,76,2
1346,61,1,8,53,1
1347,61,1,15,89,1
1348,61,18,564,60,1
1349,61,18,558,85,1
1350,62,6,171,12,2
1351,62,6,163,70,2
1352,62,6,166,39,2
1353,62,6,169,68,2
1354,62,6,165,45,2
1355,62,6,164,46,2
1356,62,6,181,5,2
1357,62,12,363,80,2
1358,62,12,356,28,2
1359,62,12,369,41,2
1360,62,12,365,63,2
1361,62,12,366,12,2
1362,62,12,362,33,2
1363,62,12,364,76,2
1364,62,12,361,85,1
1365,62,12,359,31,1
1366,63,8,230,29,2
1367,63,8,233,67,2
1368,63,8,231,50,2
1369,63,8,241,29,2
1370,63,8,235,85,2
1371,63,8,237,50,2
1372,63,8,242,56,2
1373,63,8,236,66,2
1374,63,8,234,66,2
1375,63,8,230,74,2
1376,63,8,237,10,2
1377,63,8,236,82,2
1378,63,8,238,58,2
1379,63,9,264,23,2
1380,63,9,262,33,2
1381,63,9,265,51,2
1382,63,9,272,35,2
1383,63,9,274,7,2
1384,63,9,272,72,2
1385,63,9,263,31,2
1386,63,9,274,85,2
1387,63,9,278,35,2
1388,63,9,275,24,2
1389,63,9,275,1,1
1390,63,9,265,60,1
1391,63,9,265,52,1
1392,64,10,292,25,2
1393,64,10,297,40,2
1394,64,10,302,8,2
1395,64,10,294,7,2
1396,64,10,292,33,2
1397,64,10,295,2,2
1398,64,10,313,27,2
1399,64,10,294,80,2
1400,64,10,313,69,2
1401,64,10,300,33,2
1402,64,10,297,89,2
1403,64,10,300,73,2
1404,64,10,294,31,2
1405,64,10,313,17,2
1406,64,10,295,50,2
1407,64,17,520,51,2
1408,64,17,520,77,2
1409,64,17,526,44,2
1410,64,17,527,14,2
1411,64,17,532,65,2
1412,64,17,527,49,2
1413,64,17,532,12,2
1414,64,17,524,80,2
1415,64,17,525,35,2
1416,64,17,523,5,2
1417,64,17,523,87,2
1418,64,17,522,84,2
1419,64,17,527,49,2
1420,64,17,542,23,2
1421,64,10,300,87,1
1422,64,10,313,53,1
1423,64,17,523,28,1
1424,64,17,520,33,1
1425,65,14,394,70,2
1426,65,14,396,85,2
1427,65,14,389,66,2
1428,65,14,392,71,2
1429,65,3,70,52,2
1430,65,3,74,28,2
1431,65,3,70,15,2
1432,65,3,74,88,2
1433,65,3,69,41,2
1434,65,3,70,34,2
1435,65,3,67,38,2
1436,65,3,78,62,1
1437,65,3,77,57,1
1438,65,3,72,78,1
1439,66,13,457,61,2
1440,66,13,478,3,2
1441,66,13,455,48,2
1442,66,13,464,31,2
1443,66,13,455,65,2
1444,66,13,464,55,2
1445,66,13,458,34,2
1446,66,13,456,68,2
1447,66,13,462,83,2
1448,66,13,454,40,2
1449,66,13,457,51,2
1450,66,11,339,47,2
1451,66,11,323,31,2
1452,66,11,323,15,2
1453,66,11,329,37,2
1454,66,11,324,10,2
1455,67,19,580,87,2
1456,67,19,579,51,2
1457,67,19,573,21,2
1458,67,19,574,47,2
1459,67,19,578,5,2
1460,67,19,577,71,2
1461,67,19,576,89,2
1462,67,19,583,35,2
1463,67,19,573,30,2
1464,67,19,573,32,2
1465,67,19,573,43,2
1466,67,19,580,1,2
1467,67,15,435,13,2
1468,67,15,439,84,2
1469,67,15,425,40,2
1470,67,15,428,80,2
1471,67,15,435,23,2
1472,67,15,427,61,2
1473,67,15,427,24,2
1474,67,15,425,88,2
1475,67,15,424,41,2
1476,67,15,439,2,2
1477,67,15,422,86,2
1478,67,15,435,42,1
1479,68,20,608,81,2
1480,68,20,612,54,2
1481,68,20,609,45,2
1482,68,20,617,19,2
1483,68,20,608,23,2
1484,68,20,612,68,2
1485,68,20,612,21,2
1486,68,20,620,6,2
1487,68,16,494,37,2
1488,68,16,511,23,2
1489,68,16,495,28,2
1490,68,16,488,62,2
1491,68,16,511,36,2
1492,68,16,492,55,2
1493,68,20,608,29,1
1494,68,20,617,75,1
1495,68,20,618,75,1
1496,68,16,489,29,1
1497,69,5,133,0,2
1498,69,5,146,25,2
1499,69,5,138,32,2
1500,69,5,143,66,2
1501,69,5,136,56,2
1502,69,5,146,10,2
1503,69,5,134,27,2
1504,69,5,143,28,2
1505,69,5,137,88,2
1506,69,5,136,32,2
1507,69,4,100,4,2
1508,69,4,114,57,2
1509,69,4,102,15,2
1510,69,4,108,21,2
1511,69,4,108,44,2
1512,69,4,100,41,2
1513,69,4,103,35,2
1514,69,4,100,63,2
1515,69,4,103,54,2
1516,69,4,101,36,2
1517,69,4,121,57,2
1518,69,4,106,6,2
1519,69,5,143,68,1
1520,69,4,109,63,1
1521,69,4,100,11,1
1522,69,4,105,4,1
1523,70,2,37,47,2
1524,70,2,41,1,2
1525,70,2,55,75,2
1526,70,2,51,1,2
1527,70,2,36,2,2
1528,70,2,43,26,2
1529,70,7,198,79,2
1530,70,7,198,30,2
1531,70,7,211,74,2
1532,70,7,206,38,2
1533,70,7,211,79,2
1534,70,7,211,6,2
1535,70,7,202,47,2
1536,70,7,206,81,2
1537,70,2,34,0,1
1538,70,2,44,74,1
1539,70,2,39,23,1
1540,70,7,211,75,1
1541,70,7,202,36,1
1542,70,7,196,81,1
1543,70,7,203,68,1
1544,71,3,70,81,2
1545,71,3,69,46,2
1546,71,3,69,84,2
1547,71,3,69,25,2
1548,71,3,75,42,2
1549,71,3,77,53,2
1550,71,3,71,73,2
1551,71,3,90,86,2
1552,71,3,83,48,2
1553,71,19,574,44,2
1554,71,19,578,19,2
1555,71,19,574,6,2
1556,71,19,577,63,2
1557,71,19,573,13,2
1558,71,19,575,70,2
1559,71,3,90,11,1
1560,71,3,74,60,1
1561,71,3,67,38,1
1562,71,19,573,16,1
1563,71,19,591,26,1
1564,72,4,107,26,2
1565,72,4,107,62,2
1566,72,4,109,36,2
1567,72,4,100,44,2
1568,72,4,109,8,2
1569,72,4,121,14,2
1570,72,10,294,84,2
1571,72,10,312,61,2
1572,72,10,295,83,2
1573,72,10,296,37,2
1574,72,10,297,86,2
1575,72,10,312,81,2
1576,72,10,296,0,2
1577,72,10,300,54,2
1578,72,10,295,64,2
1579,72,4,109,89,1
1580,72,4,105,42,1
1581,72,10,295,18,1
1582,72,10,313,50,1
1583,73,7,200,71,2
1584,73,7,200,56,2
1585,73,7,215,64,2
1586,73,7,206,62,2
1587,73,7,209,65,2
1588,73,7,203,28,2
1589,73,7,199,8,2
1590,73,7,201,22,2
1591,73,20,613,86,2
1592,73,20,617,30,2
1593,73,20,611,82,2
1594,73,20,606,74,2
1595,73,20,608,50,2
1596,73,20,615,67,2
1597,73,20,618,21,2
1598,73,20,609,72,2
1599,73,20,616,77,2
1600,73,7,202,6,1
1601,73,7,197,57,1
1602,73,7,205,75,1
1603,73,20,620,4,1
1604,73,20,615,45,1
1605,73,20,612,39,1
1606,73,20,611,33,1
1607,74,11,324,48,2
1608,74,11,326,81,2
1609,74,11,324,45,2
1610,74,11,323,62,2
1611,74,11,333,9,2
1612,74,11,330,53,2
1613,74,11,326,84,2
1614,74,8,241,45,2
1615,74,8,237,3,2
1616,74,8,236,3,2
1617,74,8,230,69,2
1618,74,8,235,44,2
1619,74,8,237,86,2
1620,74,8,235,16,2
1621,74,8,233,20,2
1622,74,8,239,24,2
1623,74,8,239,59,2
1624,74,11,333,21,1
1625,74,11,322,88,1
1626,74,8,230,65,1
1627,74,11,329,61,0
1628,75,15,428,14,2
1629,75,15,423,59,2
1630,75,15,427,25,2
1631,75,15,422,79,2
1632,75,15,424,42,2
1633,75,15,439,30,2
1634,75,15,430,11,2
1635,75,15,422,50,2
1636,75,15,426,52,2
1637,75,15,428,62,2
1638,75,15,440,20,2
1639,75,15,430,27,2
1640,75,15,423,67,2
1641,75,15,435,17,2
1642,75,13,455,9,2
1643,75,13,454,70,2
1644,75,13,478,22,2
1645,75,13,463,18,2
1646,75,13,469,36,2
1647,75,13,458,53,2
1648,75,15,423,0,1
1649,75,15,435,55,1
1650,75,13,462,41,1
1651,75,13,459,81,1
1652,76,17,528,66,2
1653,76,17,524,86,2
1654,76,17,533,5,2
1655,76,17,520,47,2
1656,76,17,524,14,2
1657,76,5,139,9,2
1658,76,5,134,56,2
1659,76,5,139,71,2
1660,76,5,143,78,2
1661,76,5,139,50,2
1662,76,5,138,32,2
1663,76,5,134,7,2
1664,76,5,134,12,2
1665,76,5,139,75,2
1666,76,17,525,69,1
1667,76,17,524,20,1
1668,76,5,141,89,1
1669,76,5,143,57,0
1670,77,18,561,75,2
1671,77,18,569,78,2
1672,77,18,568,77,2
1673,77,18,556,68,2
1674,77,18,569,41,2
1675,77,18,553,48,2
1676,77,18,559,58,2
1677,77,2,36,59,2
1678,77,2,42,44,2
1679,77,2,43,85,2
1680,77,2,38,74,2
1681,77,2,37,22,2
1682,77,2,44,81,2
1683,77,2,37,8,2
1684,77,2,44,71,2
1685,77,18,568,26,1
1686,77,18,556,79,1
1687,77,18,561,12,1
1688,77,2,42,56,1
1689,77,18,553,52,0
1690,78,9,270,45,2
1691,78,9,266,34,2
1692,78,9,274,33,2
1693,78,9,265,23,2
1694,78,9,271,47,2
1695,78,9,269,88,2
1696,78,9,278,72,2
1697,78,9,272,75,2
1698,78,9,262,59,2
1699,78,1,2,29,2
1700,78,1,8,80,2
1701,78,1,1,30,2
1702,78,1,8,20,2
1703,78,1,15,74,2
1704,78,1,8,49,2
1705,78,1,11,25,2
1706,78,1,4,0,2
1707,78,1,11,72,2
1708,78,1,1,42,2
1709,78,1,8,49,2
1710,78,1,4,35,2
1711,78,9,271,49,1
1712,78,9,270,19,1
1713,79,12,356,34,2
1714,79,12,360,41,2
1715,79,12,355,21,2
1716,79,12,362,40,2
1717,79,12,361,50,2
1718,79,12,365,24,2
1719,79,12,361,41,2
1720,79,12,358,37,2
1721,79,12,358,41,2
1722,79,14,407,39,2
1723,79,14,398,20,2
1724,79,14,398,64,2
1725,79,14,396,43,2
1726,79,14,394,27,2
1727,79,14,394,50,2
1728,79,14,394,60,2
1729,79,12,359,85,1
1730,79,14,398,88,1
1731,79,14,397,47,1
1732,79,14,393,25,1
1733,80,16,496,6,2
1734,80,16,507,67,2
1735,80,16,495,40,2
1736,80,16,487,88,2
1737,80,16,496,75,2
1738,80,16,499,58,2
1739,80,16,491,69,2
1740,80,6,164,32,2
1741,80,6,167,32,2
1742,80,6,168,16,2
1743,80,6,163,51,2
1744,80,6,183,50,2
1745,80,6,184,44,2
1746,80,6,173,24,2
1747,80,6,176,89,2
1748,80,6,176,2,2
1749,80,6,181,9,2
1750,80,6,167,64,2
1751,80,16,489,43,1
1752,80,16,488,57,1
1753,80,16,497,45,1
1754,80,16,490,60,1
1755,80,16,488,1,1
1756,80,16,490,70,1
1757,81,2,55,77,2
1758,81,2,44,9,2
1759,81,2,42,66,2
1760,81,2,51,41,2
1761,81,2,38,47,2
1762,81,2,39,50,2
1763,81,2,55,20,2
1764,81,2,35,23,2
1765,81,2,45,81,2
1766,81,16,490,76,2
1767,81,16,496,31,2
1768,81,16,491,41,2
1769,81,16,507,48,2
1770,81,16,494,27,2
1771,81,16,507,10,2
1772,81,16,507,38,2
1773,81,16,511,80,2
1774,81,16,487,80,2
1775,81,16,496,87,2
1776,81,16,494,79,2
1777,81,16,493,83,2
1778,81,2,38,27,1
1779,81,16,488,78,1
1780,81,16,491,18,1
1781,82,5,140,1,2
1782,82,5,138,35,2
1783,82,5,140,0,2
1784,82,5,151,62,2
1785,82,5,136,45,2
1786,82,5,136,77,2
1787,82,5,138,87,2
1788,82,5,146,6,2
1789,82,5,137,32,2
1790,82,5,141,69,2
1791,82,5,151,56,2
1792,82,5,146,21,2
1793,82,9,269,60,2
1794,82,9,266,71,2
1795,82,9,270,3,2
1796,82,9,271,43,2
1797,82,9,270,11,2
1798,82,9,278,38,2
1799,82,9,275,19,2
1800,82,9,271,41,2
1801,82,9,262,19,2
1802,82,9,270,61,2
1803,82,9,265,88,2
1804,82,9,278,44,2
1805,82,9,266,44,2
1806,82,5,146,18,1
1807,82,5,145,58,1
1808,82,5,146,46,1
1809,82,9,271,50,1
1810,82,9,267,63,1
1811,82,9,266,71,1
1812,83,6,169,61,2
1813,83,6,175,74,2
1814,83,6,169,48,2
1815,83,6,165,52,2
1816,83,6,171,40,2
1817,83,6,173,1,2
1818,83,6,168,60,2
1819,83,15,427,83,2
1820,83,15,435,41,2
1821,83,15,429,37,2
1822,83,15,423,10,2
1823,83,15,430,54,2
1824,83,15,421,56,2
1825,83,15,427,16,2
1826,83,15,426,73,2
1827,83,15,435,38,2
1828,83,15,430,58,2
1829,83,15,439,79,2
1830,83,15,422,82,2
1831,83,6,173,77,1
1832,83,6,169,83,1
1833,83,15,435,62,1
1834,83,15,431,17,1
1835,83,15,430,7,1
1836,83,15,435,9,1
1837,83,15,428,18,1
1838,84,10,293,44,2
1839,84,10,296,15,2
1840,84,10,297,50,2
1841,84,10,294,51,2
1842,84,10,312,81,2
1843,84,10,303,41,2
1844,84,10,293,67,2
1845,84,10,296,1,2
1846,84,10,303,81,2
1847,84,12,362,54,2
1848,84,12,366,76,2
1849,84,12,363,47,2
1850,84,12,367,52,2
1851,84,12,359,65,1
1852,84,12,355,71,1
1853,85,14,407,26,2
1854,85,14,392,77,2
1855,85,14,395,52,2
1856,85,14,397,80,2
1857,85,14,394,78,2
1858,85,14,388,23,2
1859,85,14,391,89,2
1860,85,14,396,55,2
1861,85,14,393,25,2
1862,85,4,116,29,2
1863,85,4,121,19,2
1864,85,4,105,22,2
1865,85,14,388,1,1
1866,85,14,398,64,1
1867,85,4,106,84,1
1868,85,4,111,17,1
1869,86,13,455,77,2
1870,86,13,460,60,2
1871,86,13,472,9,2
1872,86,13,462,23,2
1873,86,13,459,67,2
1874,86,13,469,10,2
1875,86,13,457,52,2
1876,86,13,460,9,2
1877,86,13,478,46,2
1878,86,13,463,60,2
1879,86,13,461,2,2
1880,86,13,456,26,2
1881,86,13,463,65,2
1882,86,3,69,55,2
1883,86,3,77,63,2
1884,86,3,77,4,2
1885,86,3,78,36,2
1886,86,3,70,46,2
1887,86,3,75,50,2
1888,86,3,73,66,2
1889,86,3,90,25,2
1890,86,3,77,14,2
1891,86,3,75,8,2
1892,86,3,71,29,2
1893,86,3,77,8,2
1894,86,3,68,69,2
1895,86,3,70,24,2
1896,86,3,73,79,2
1897,86,3,74,54,1
1898,86,3,68,85,1
1899,87,19,574,3,2
1900,87,19,578,38,2
1901,87,19,578,0,2
1902,87,19,588,78,2
1903,87,19,595,12,2
1904,87,17,530,50,2
1905,87,17,526,81,2
1906,87,17,523,20,2
1907,87,17,525,83,2
1908,87,17,526,77,2
1909,87,17,530,8,2
1910,87,17,526,81,2
1911,87,17,520,26,2
1912,87,17,532,20,2
1913,87,17,532,16,2
1914,87,19,578,79,1
1915,87,19,579,52,1
1916,87,19,575,42,1
1917,88,20,615,46,2
1918,88,20,610,13,2
1919,88,20,615,67,2
1920,88,20,607,35,2
1921,88,20,614,49,2
1922,88,20,612,55,2
1923,88,20,618,86,2
1924,88,20,617,24,2
1925,88,20,614,40,2
1926,88,20,617,4,2
1927,88,20,612,76,2
1928,88,20,613,50,2
1929,88,20,612,51,2
1930,88,20,612,58,2
1931,88,20,606,65,2
1932,88,20,618,53,2
1933,88,20,610,20,2
1934,88,20,620,2,2
1935,88,20,610,36,2
1936,88,20,620,27,2
1937,88,18,558,62,2
1938,88,18,557,24,2
1939,88,18,554,32,2
1940,88,18,554,4,2
1941,88,18,561,0,2
1942,88,18,568,58,2
1943,88,18,553,67,2
1944,88,18,565,45,2
1945,88,18,565,30,2
1946,88,18,557,62,2
1947,88,18,564,21,2
1948,88,18,568,68,2
1949,88,20,616,17,1
1950,88,20,608,10,1
1951,88,20,609,33,1
1952,88,18,554,29,1
1953,89,8,238,7,2
1954,89,8,237,72,2
1955,89,8,236,89,2
1956,89,8,243,79,2
1957,89,8,234,88,2
1958,89,8,235,17,2
1959,89,8,233,78,2
1960,89,8,230,48,2
1961,89,8,236,29,2
1962,89,8,243,64,2
1963,89,8,230,19,2
1964,89,7,202,1,2
1965,89,7,209,19,2
1966,89,7,209,77,2
1967,89,7,203,36,2
1968,89,7,196,0,2
1969,89,7,205,11,2
1970,89,7,197,5,2
1971,89,7,200,1,2
1972,89,7,211,73,2
1973,89,7,206,5,2
1974,89,7,203,28,2
1975,89,7,215,27,2
1976,89,7,205,78,2
1977,89,7,206,9,2
1978,89,7,205,46,2
1979,89,7,199,64,2
1980,89,8,241,65,1
1981,89,8,234,78,1
1982,89,7,196,42,1
1983,90,1,9,18,2
1984,90,1,4,59,2
1985,90,1,8,8,2
1986,90,1,20,7,2
1987,90,1,15,82,2
1988,90,1,3,34,2
1989,90,1,2,58,2
1990,90,1,1,59,2
1991,90,11,325,59,2
1992,90,11,323,84,2
1993,90,11,329,83,2
1994,90,11,323,89,2
1995,90,11,323,4,2
1996,90,11,329,27,2
1997,90,11,323,35,2
